…
standup_bi %>%
 count(word, sort = TRUE)
```

    ## # A tibble: 49,523 x 2
    ##    word           n
    ##    <chr>      <int>
    ##  1 <NA>        2123
    ##  2 you know     567
    ##  3 i was        437
    ##  4 and i        432
    ##  5 i don’t      417
    ##  6 in the       316
    ##  7 was like     253
    ##  8 and then     225
    ##  9 do you       201
    ## 10 don’t know   199
    ## # ... with 49,513 more rows
…
bigrams_filtered <- bigrams_separated %>%
 filter(!word1 %in% stop_words$word) %>%
 filter(!word2 %in% stop_words$word) 

bigram_counts <- bigrams_filtered %>%
 count(word1, word2, sort = TRUE)

bigram_counts
```

    ## # A tibble: 8,863 x 3
    ##    word1  word2        n
    ##    <chr>  <chr>    <int>
    ##  1 <NA>   <NA>      2123
    ##  2 i’m    gonna       69
    ##  3 you’re gonna       35
    ##  4 crowd  cheering    20
    ##  5 don’t  care        19
    ##  6 it’s   gonna       16
    ##  7 yeah   yeah        16
    ##  8 yeah   it’s        14
    ##  9 don’t  wanna       13
    ## 10 gonna  happen      13
    ## # ... with 8,853 more rows

``` r
bigrams_united <- bigrams_filtered %>%
 unite(word, word1, word2, sep = " ")

bigrams_united
```

    ## # A tibble: 13,059 x 3
    ##    file  line_number word                 
    ##    <chr>       <int> <chr>                
    ##  1 ali             1 y’all wasn’t         
    ##  2 ali             1 wasn’t gon           
    ##  3 ali             3 wu tang              
    ##  4 ali             3 forever motherfuckers
    ##  5 ali             7 i’ma rub             
    ##  6 ali             9 bomb atomically      
    ##  7 ali            10 socrates philosophies
    ##  8 ali            11 can’t define         
    ##  9 ali            12 lyrically perform    
    ## 10 ali            12 perform armed        
    ## # ... with 13,049 more rows
…
standup_bi <- standup_bi %>% 
  mutate(gender=ifelse(file=="burt"|file=="dave"|file=="marc_maron"|file=="pete"|file=="ricky"|file=="tom", "male", "female")) %>% 
  select(-file)

standup_bi %>%
 count(word, sort = TRUE)
```

    ## # A tibble: 49,523 x 2
    ##    word           n
    ##    <chr>      <int>
    ##  1 <NA>        2123
    ##  2 you know     567
    ##  3 i was        437
    ##  4 and i        432
    ##  5 i don’t      417
    ##  6 in the       316
    ##  7 was like     253
    ##  8 and then     225
    ##  9 do you       201
    ## 10 don’t know   199
    ## # ... with 49,513 more rows
…
bigrams_filtered <- bigrams_separated %>%
 filter(!word1 %in% stop_words$word) %>%
 filter(!word2 %in% stop_words$word) 

bigram_counts <- bigrams_filtered %>%
 count(word1, word2, sort = TRUE)

bigram_counts
```

    ## # A tibble: 8,863 x 3
    ##    word1  word2        n
    ##    <chr>  <chr>    <int>
    ##  1 <NA>   <NA>      2123
    ##  2 i’m    gonna       69
    ##  3 you’re gonna       35
    ##  4 crowd  cheering    20
    ##  5 don’t  care        19
    ##  6 it’s   gonna       16
    ##  7 yeah   yeah        16
    ##  8 yeah   it’s        14
    ##  9 don’t  wanna       13
    ## 10 gonna  happen      13
    ## # ... with 8,853 more rows

``` r
bigrams_united <- bigrams_filtered %>%
 unite(word, word1, word2, sep = " ")

bigrams_united
```

    ## # A tibble: 13,059 x 3
    ##    line_number word                  gender
    ##          <int> <chr>                 <chr> 
    ##  1           1 y’all wasn’t          female
    ##  2           1 wasn’t gon            female
    ##  3           3 wu tang               female
    ##  4           3 forever motherfuckers female
    ##  5           7 i’ma rub              female
    ##  6           9 bomb atomically       female
    ##  7          10 socrates philosophies female
    ##  8          11 can’t define          female
    ##  9          12 lyrically perform     female
    ## 10          12 perform armed         female
    ## # ... with 13,049 more rows
…
